{
        "postId" : "9521",
        "title" : "প্যামপারড | দীপ্তিছড়ানো দেহত্বক ",
        "detail" : "ঋতু পরিবর্তনের প্রভাব কমবেশি সবার ত্বকেই পড়ে। নজরে সবচেয়ে বেশি আসে ত্বকের মলিনতা। দুশ্চিন্তা না করে বরং প্রাত্যহিক যাপনে কিছু নিয়ম মেনে চললেই এ সমস্যা থেকে রেহাই পাওয়া কঠিন কিছু নয়। জোর দিন পরিষ্কার-পরিচ্ছন্নতার ওপর। বাইরে থেকে এসেই ভালো করে পুরো মুখ ও হাত-পা ধুয়ে নেবেন। চেষ্টা করুন সোপ ফ্রি পণ্য ব্যবহারে।  ত্বকের মলিনতা দূর করতে বিভিন্ন ধরনের টোনার ভালো কাজ দেয়। যদি ময়শ্চারাইজার বা অন্য কোনো পণ্য ব্যবহার করেন, তবে টোনার ব্যবহারের আগে ত্বক পরিষ্কার করে নিতে হবে। খুব কম টোনারই ক্ষতিকর বা ত্বককে বেশি শুষ্ক করে তোলে। তবু কেনার সময় সতর্ক থাকবেন। এ ক্ষেত্রে ভালো হয় অর্গানিক কোনো টোনার বেছে নিলে, যা জ্বলুনি ছাড়াই ত্বকের উজ্জ্বলতায় সহায়ক হবে। সৌন্দর্যচর্চায় এমন কিছু থাকা দরকার, যা সপ্তাহে অন্তত একবার ব্যবহার করা যাবে এবং ত্বকে প্রয়োজনীয় পুষ্টি জোগাবে। এ কাজে ভালো ফল দিতে পারে বিভিন্ন ধরনের মাস্ক। সে জন্য খুব কষ্ট করার দরকার নেই । ঘরোয়া বিভিন্ন উপাদানেই তৈরি করে নেয়া যেতে পারে কার্যকর সব মাস্ক। দুধ ও মধুর মাস্ক ত্বকের উজ্জ্বলতায় ভালো কাজ দেয়, আর্দ্রতা ধরে রাখতে সহায়তা করে। একটি ডিমের সাদা অংশ এবং এক টেবিল-চামচ মধু মিশিয়ে নিন। পুরো মুখে লাগিয়ে ১৫-২০ মিনিট পর হালকা গরম পানি দিয়ে ভালো করে ধুয়ে ফেলুন। এক টেবিল-চামচ পাকা টমেটোর সঙ্গে দুই ফোঁটা মধু মিশিয়ে ব্যবহার করতে পারেন। দুধের সঙ্গে সামান্য হলুদ মিশিয়ে নিতে পারেন। এই মাস্ক শুষ্ক ত্বকে বেশ কার্যকর।যেকোনো ধরনের স্ট্রেস মুখত্বকে বিরূপ প্রভাব ফেলতে পারে। এ ছাড়া আপনি কী খাচ্ছেন, কীভাবে জীবন যাপন করছেন, সেটাও লক্ষ করার বিষয়। খাদ্যতালিকায় রাখুন প্রচুর ফল, শাকসবজি, দানাদার, কম চর্বিযুক্ত ও উচ্চ আঁশযুক্ত খাবার। বিভিন্ন ধরনের ফ্যাটি অ্যাসিড, বিশেষ করে ওমেগা থ্রি সুস্থ ও উজ্জ্বল ত্বকের জন্য বেশ কার্যকর। ওমেগা থ্রির ভালো উৎস বিভিন্ন সামুদ্রিক মাছ। এ ছাড়া জলপাই তেল ও বাদাম এই ফ্যাটি অ্যাসিডের ভালো উৎস। বেশি পানি পান করুন। এতে আপনার শরীরের ক্ষতিকর উপাদানগুলো বেরিয়ে যাবে। নিয়মিত ব্যায়াম আর রাতে পর্যাপ্ত ঘুম সুস্থ শরীর ও ত্বকের পক্ষে সহায়ক। ত্বকে বয়সের ছাপ ও মলিনতা কোষের দেয়াল ও কাঠামোর ক্ষতিগ্রস্ত হওয়ার ফল। ত্বকে ফ্রি র্যাডিক্যাল উৎপন্ন হলে কোষের বিপর্যয় ঘটে। সূর্যের অতিবেগুনি রশ্মি ও ধূমপান এই ক্ষতিকর উপাদানের জন্য দায়ী। তাই যতোটা সম্ভব সূর্যরশ্মি ও ধূমপান এড়িয়ে চলুন, দিনের বেলায় বেরোনোর আগে অবশ্যই সানস্ক্রিন ব্যবহার করবেন। তবে এ ক্ষেত্রে এসপিএফ ৩০-র বেশি কোনো কিছু না নিয়ে টাইটানিয়াম ডাই-অক্সাইড অথবা জিঙ্ক অক্সাইডের মতো খনিজভিত্তিক, রাসায়নিকমুক্ত উপাদান বেছে নেয়া ভালো। অনেকেই মনে করেন, বেশি এসপিফের সানস্ক্রিন যথেষ্ট সুরক্ষা দেয়। কিন্তু সেই মাত্রা ৩০ ছাড়িয়ে গেলেও বেশির ভাগ পণ্যই আসলে কাক্সিক্ষত সুরক্ষা দেয় না, বরং এতে ক্ষতির আশঙ্কাই বেশি। যেমন- এসপিএফ ৩০ যেখানে ৯৮ শতাংশ সান রে প্রতিরোধ করতে পারে, সেখানে এসপিএফ ৫০ করে মাত্র ৯৯ শতাংশ। তাই শুধু ধারণার ওপর নির্ভর না করে জেনে ব্যবহার করুন ত্বক রক্ষাকারী সানস্ক্রিন।"
}