[
    { "title": "fljdlfjdl", "desc": "lfdfjlfdlfjdlfj", "url":"../img/hm_beauty.jpg" },
    { "title": "fljdlfjdl", "desc": "lfdfjlfdlfjdlfj", "url":"../img/hm_fashion.jpg" },
    { "title": "fljdlfjdl", "desc": "lfdfjlfdlfjdlfj", "url":"../img/hm_horoscope.jpg" },
    { "title": "fljdlfjdl", "desc": "lfdfjlfdlfjdlfj", "url":"../img/hm_lifestyle.jpg" },
    { "title": "fljdlfjdl", "desc": "lfdfjlfdlfjdlfj", "url":"../img/hm_photo.jpg" },
    { "title": "fljdlfjdl", "desc": "lfdfjlfdlfjdlfj", "url":"../img/hm_specialIssue.jpg" },
    { "title": "fljdlfjdl", "desc": "lfdfjlfdlfjdlfj", "url":"../img/hm_video.jpg" }
]
