{"pageItems":
    {
        "catName": "fashion",
        "catBnrs":[
            { "imgId": "101", "newsId": "12", "url":"http://.../dt.jpg" },
            { "imgId": "102", "newsId": "15", "url":"http://.../be.jpg" },
            { "imgId": "109", "newsId": "17", "url":"http://.../ge.jpg" }
        ],
        "catNews": [
            { "nwsId": "01", "title": "হরাইজন ",
              "summary":"অ্যালানাহ হিলে ডামি ইম বিখ্যাত ব্র্যান্ড অ্যালানাহ হিল তাদের নতুন কালেকশনের জন্য বেছে নিয়েছে ডামি ইমকে। ডামি ইম রিয়েলিটি শো ‘এক্স ফ্যাক্টর’-এর গত বছরের বিজয়ী। অ্যালানাহ হিল অ্যা ডব্লিউ ফরটিন … ",
              "detail": "detail1 ......" },
            { "nwsId": "02", "title": "ফিচার I অ্যাজটেক ইন ",
              "summary":"বিন্যাসে, নকশায় ও রঙের ঐশ্বর্যে প্রাচীন সভ্যতা ও সংস্কৃতির সংকেত। ট্রেন্ডি, ফ্যাশনেবল আর বর্ণিল আউটফিটের জন্য । গ্রিক পুরাণ, জাপানের কিংবদন্তি সামুরাই বা মিসরীয় সভ্যতার প্রতীক রহস্যময় মমি ও পিরামিডের দিকে … ",
              "detail": "detail2......." },
            { "nwsId": "03", "title": "সঙ্গানুষঙ্ I মুঠোফোনের সাজ",
              "summary":"যোগাযোগের মাধ্যমই শুধু নয়, সেলুলার ফোন এখন জীবনধারার অংশও। তবে স্টাইলিশদের কাছে এই যন্ত্রের আবেদন ভিন্ন। তারা এর আকর্ষণে যোগ করতে চান নজরকাড়া উপকরণ দিনের অধিকাংশ সময় সেলফোন আমাদের সঙ্গেই … ",
              "detail": "detail3......." },
            { "nwsId": "04", "title": "শিলুয়েট I পিয়ার শেপ ",
              "summary":"সাধারণত শোল্ডার ও চেস্টের তুলনায় হিপ ও থাই বেশি হয়ে থাকে এই শেপে। তবে ওয়েস্ট কার্ভ চিহ্নিত করা যায়। ভারত উপমহাদেশের তথা আমাদের দেশের বেশির ভাগ নারীর গঠন এ ধরনের। … ",
              "detail": "detail4......." },
            { "nwsId": "05", "title": "পোর্টফোলিও I বাহারি প্যান্ট",
              "summary":"বদলে যাচ্ছে প্যান্টের জগৎ। রঙ, ডিজাইন, কাট আর প্যাটার্নে চলছে এক্সপেরিমেন্ট। কারণ নতুনত্বের তৃষ্ণা, সময়ের সঙ্গে পোশাকের তাল মেলানো। এও বুঝে নেয়াÑ প্যান্ট যে কতো রকম হতে পারে। ডিজাইনার চন্দনা … ",
              "detail": "detail5......." }
        ]
    }
}

