[
    {"url" : "http://youtu.be/Cvj45kaGRjE" },
    {"url" : "http://youtu.be/-QQBvONjLJM" },
    {"url" : "http://youtu.be/QDP2VDTt9iw" },
    {"url" : "http://youtu.be/6na5ynw91qo" },
    {"url" : "http://youtu.be/6aAfWFHVanY" },
    {"url" : "http://youtu.be/afc9IgGArrY" },
    {"url" : "http://youtu.be/3CP5eShfySg" },
    {"url" : "http://youtu.be/iiasnWhrNT4" }
]